-- Merging decision tree log ---
manifest
ADDED from C:\Users\sando\Documents\Doabox\app\src\main\AndroidManifest.xml:2:1-30:12
INJECTED from C:\Users\sando\Documents\Doabox\app\src\main\AndroidManifest.xml:2:1-30:12
INJECTED from C:\Users\sando\Documents\Doabox\app\src\main\AndroidManifest.xml:2:1-30:12
INJECTED from C:\Users\sando\Documents\Doabox\app\src\main\AndroidManifest.xml:2:1-30:12
MERGED from [com.android.support:appcompat-v7:28.0.0-rc02] C:\Users\sando\.gradle\caches\transforms-1\files-1.1\appcompat-v7-28.0.0-rc02.aar\10d88bb964da4bbdb7b047812e1e85f3\AndroidManifest.xml:17:1-22:12
MERGED from [com.android.support:support-fragment:28.0.0-rc02] C:\Users\sando\.gradle\caches\transforms-1\files-1.1\support-fragment-28.0.0-rc02.aar\30a6cd1f1e2b9c296587aaabcd00bebc\AndroidManifest.xml:17:1-22:12
MERGED from [com.android.support:animated-vector-drawable:28.0.0-rc02] C:\Users\sando\.gradle\caches\transforms-1\files-1.1\animated-vector-drawable-28.0.0-rc02.aar\9e752d767e08e0689393813063bcc826\AndroidManifest.xml:17:1-22:12
MERGED from [com.android.support:support-core-ui:28.0.0-rc02] C:\Users\sando\.gradle\caches\transforms-1\files-1.1\support-core-ui-28.0.0-rc02.aar\4fa977d33fb6b0b437fd5349144ed663\AndroidManifest.xml:17:1-22:12
MERGED from [com.android.support:support-core-utils:28.0.0-rc02] C:\Users\sando\.gradle\caches\transforms-1\files-1.1\support-core-utils-28.0.0-rc02.aar\a436a18c26676fe163cdb2f0d47e6b25\AndroidManifest.xml:17:1-22:12
MERGED from [com.android.support:support-vector-drawable:28.0.0-rc02] C:\Users\sando\.gradle\caches\transforms-1\files-1.1\support-vector-drawable-28.0.0-rc02.aar\d14cea26ebea4857b621382b880c457b\AndroidManifest.xml:17:1-22:12
MERGED from [com.android.support:loader:28.0.0-rc02] C:\Users\sando\.gradle\caches\transforms-1\files-1.1\loader-28.0.0-rc02.aar\9b40bb7305f5b7950852a5ffa5c86314\AndroidManifest.xml:17:1-22:12
MERGED from [com.android.support:viewpager:28.0.0-rc02] C:\Users\sando\.gradle\caches\transforms-1\files-1.1\viewpager-28.0.0-rc02.aar\a151155cced98fc6279df4ffb38a1a93\AndroidManifest.xml:17:1-22:12
MERGED from [com.android.support:coordinatorlayout:28.0.0-rc02] C:\Users\sando\.gradle\caches\transforms-1\files-1.1\coordinatorlayout-28.0.0-rc02.aar\07b1102b29342d200f486b059c7cb5cf\AndroidManifest.xml:17:1-22:12
MERGED from [com.android.support:drawerlayout:28.0.0-rc02] C:\Users\sando\.gradle\caches\transforms-1\files-1.1\drawerlayout-28.0.0-rc02.aar\85a175628bd375ce6a8ea0136367e04a\AndroidManifest.xml:17:1-22:12
MERGED from [com.android.support:slidingpanelayout:28.0.0-rc02] C:\Users\sando\.gradle\caches\transforms-1\files-1.1\slidingpanelayout-28.0.0-rc02.aar\aa2bef0a4096008e7b9b13457dcd3025\AndroidManifest.xml:17:1-22:12
MERGED from [com.android.support:customview:28.0.0-rc02] C:\Users\sando\.gradle\caches\transforms-1\files-1.1\customview-28.0.0-rc02.aar\d63615aa2ca6b2c8e5c68367bcbaada9\AndroidManifest.xml:17:1-22:12
MERGED from [com.android.support:swiperefreshlayout:28.0.0-rc02] C:\Users\sando\.gradle\caches\transforms-1\files-1.1\swiperefreshlayout-28.0.0-rc02.aar\7b07c4cb7e1e2622f426d552ba0b73cc\AndroidManifest.xml:17:1-22:12
MERGED from [com.android.support:asynclayoutinflater:28.0.0-rc02] C:\Users\sando\.gradle\caches\transforms-1\files-1.1\asynclayoutinflater-28.0.0-rc02.aar\04069ed6662398b531b9589620489fa7\AndroidManifest.xml:17:1-22:12
MERGED from [com.android.support:support-compat:28.0.0-rc02] C:\Users\sando\.gradle\caches\transforms-1\files-1.1\support-compat-28.0.0-rc02.aar\ca93561951633df9bce8204401574d0e\AndroidManifest.xml:17:1-24:12
MERGED from [com.android.support:versionedparcelable:28.0.0-rc02] C:\Users\sando\.gradle\caches\transforms-1\files-1.1\versionedparcelable-28.0.0-rc02.aar\cf7863fd72863b2ccd83afa344bdb04e\AndroidManifest.xml:17:1-25:12
MERGED from [com.android.support:cursoradapter:28.0.0-rc02] C:\Users\sando\.gradle\caches\transforms-1\files-1.1\cursoradapter-28.0.0-rc02.aar\45ac6648753b61d4f559e22435b28988\AndroidManifest.xml:17:1-22:12
MERGED from [android.arch.lifecycle:runtime:1.1.1] C:\Users\sando\.gradle\caches\transforms-1\files-1.1\runtime-1.1.1.aar\7492823640c92bcf20f6e2f7838091e3\AndroidManifest.xml:17:1-22:12
MERGED from [com.android.support:documentfile:28.0.0-rc02] C:\Users\sando\.gradle\caches\transforms-1\files-1.1\documentfile-28.0.0-rc02.aar\223e4d490302a1e861314922334f0977\AndroidManifest.xml:17:1-22:12
MERGED from [com.android.support:localbroadcastmanager:28.0.0-rc02] C:\Users\sando\.gradle\caches\transforms-1\files-1.1\localbroadcastmanager-28.0.0-rc02.aar\137d8191e3ca43c31d07e6d49fdc4a43\AndroidManifest.xml:17:1-22:12
MERGED from [com.android.support:print:28.0.0-rc02] C:\Users\sando\.gradle\caches\transforms-1\files-1.1\print-28.0.0-rc02.aar\e385dbb23f1ccd0a9b7da5b7ec65e813\AndroidManifest.xml:17:1-22:12
MERGED from [android.arch.lifecycle:viewmodel:1.1.1] C:\Users\sando\.gradle\caches\transforms-1\files-1.1\viewmodel-1.1.1.aar\6fda5bc17ae23a4e10d7a9f3720016d3\AndroidManifest.xml:17:1-22:12
MERGED from [android.arch.lifecycle:livedata-core:1.1.1] C:\Users\sando\.gradle\caches\transforms-1\files-1.1\livedata-core-1.1.1.aar\c876238d39649c83f21ea29195486d1c\AndroidManifest.xml:17:1-22:12
MERGED from [android.arch.core:runtime:1.1.1] C:\Users\sando\.gradle\caches\transforms-1\files-1.1\runtime-1.1.1.aar\d1a59240cc7a94740586b0dd8c13737d\AndroidManifest.xml:17:1-22:12
MERGED from [com.android.support:interpolator:28.0.0-rc02] C:\Users\sando\.gradle\caches\transforms-1\files-1.1\interpolator-28.0.0-rc02.aar\f92c7a01c257bd9af814c043a1383878\AndroidManifest.xml:17:1-22:12
INJECTED from C:\Users\sando\Documents\Doabox\app\src\main\AndroidManifest.xml:2:1-30:12
INJECTED from C:\Users\sando\Documents\Doabox\app\src\main\AndroidManifest.xml:2:1-30:12
INJECTED from C:\Users\sando\Documents\Doabox\app\src\main\AndroidManifest.xml:2:1-30:12
	package
		ADDED from C:\Users\sando\Documents\Doabox\app\src\main\AndroidManifest.xml:3:5-43
		INJECTED from C:\Users\sando\Documents\Doabox\app\src\main\AndroidManifest.xml
		INJECTED from C:\Users\sando\Documents\Doabox\app\src\main\AndroidManifest.xml
	android:versionName
		INJECTED from C:\Users\sando\Documents\Doabox\app\src\main\AndroidManifest.xml
		ADDED from C:\Users\sando\Documents\Doabox\app\src\main\AndroidManifest.xml:2:1-30:12
		INJECTED from C:\Users\sando\Documents\Doabox\app\src\main\AndroidManifest.xml
	android:versionCode
		INJECTED from C:\Users\sando\Documents\Doabox\app\src\main\AndroidManifest.xml
		ADDED from C:\Users\sando\Documents\Doabox\app\src\main\AndroidManifest.xml:2:1-30:12
		INJECTED from C:\Users\sando\Documents\Doabox\app\src\main\AndroidManifest.xml
	xmlns:android
		ADDED from C:\Users\sando\Documents\Doabox\app\src\main\AndroidManifest.xml:2:11-69
uses-permission#android.permission.CALL_PHONE
ADDED from C:\Users\sando\Documents\Doabox\app\src\main\AndroidManifest.xml:5:5-69
	android:name
		ADDED from C:\Users\sando\Documents\Doabox\app\src\main\AndroidManifest.xml:5:22-66
uses-permission#android.permission.READ_CONTACTS
ADDED from C:\Users\sando\Documents\Doabox\app\src\main\AndroidManifest.xml:6:5-72
	android:name
		ADDED from C:\Users\sando\Documents\Doabox\app\src\main\AndroidManifest.xml:6:22-69
application
ADDED from C:\Users\sando\Documents\Doabox\app\src\main\AndroidManifest.xml:8:5-28:19
MERGED from [com.android.support:support-compat:28.0.0-rc02] C:\Users\sando\.gradle\caches\transforms-1\files-1.1\support-compat-28.0.0-rc02.aar\ca93561951633df9bce8204401574d0e\AndroidManifest.xml:22:5-94
MERGED from [com.android.support:support-compat:28.0.0-rc02] C:\Users\sando\.gradle\caches\transforms-1\files-1.1\support-compat-28.0.0-rc02.aar\ca93561951633df9bce8204401574d0e\AndroidManifest.xml:22:5-94
MERGED from [com.android.support:versionedparcelable:28.0.0-rc02] C:\Users\sando\.gradle\caches\transforms-1\files-1.1\versionedparcelable-28.0.0-rc02.aar\cf7863fd72863b2ccd83afa344bdb04e\AndroidManifest.xml:22:5-23:19
MERGED from [com.android.support:versionedparcelable:28.0.0-rc02] C:\Users\sando\.gradle\caches\transforms-1\files-1.1\versionedparcelable-28.0.0-rc02.aar\cf7863fd72863b2ccd83afa344bdb04e\AndroidManifest.xml:22:5-23:19
	android:appComponentFactory
		ADDED from [com.android.support:support-compat:28.0.0-rc02] C:\Users\sando\.gradle\caches\transforms-1\files-1.1\support-compat-28.0.0-rc02.aar\ca93561951633df9bce8204401574d0e\AndroidManifest.xml:22:18-91
	android:supportsRtl
		ADDED from C:\Users\sando\Documents\Doabox\app\src\main\AndroidManifest.xml:13:9-35
	android:label
		ADDED from C:\Users\sando\Documents\Doabox\app\src\main\AndroidManifest.xml:11:9-41
	android:roundIcon
		ADDED from C:\Users\sando\Documents\Doabox\app\src\main\AndroidManifest.xml:12:9-54
	android:icon
		ADDED from C:\Users\sando\Documents\Doabox\app\src\main\AndroidManifest.xml:10:9-39
	android:allowBackup
		ADDED from C:\Users\sando\Documents\Doabox\app\src\main\AndroidManifest.xml:9:9-35
	android:theme
		ADDED from C:\Users\sando\Documents\Doabox\app\src\main\AndroidManifest.xml:14:9-40
activity#com.example.sandoelio.doabox.view.Apresentacao
ADDED from C:\Users\sando\Documents\Doabox\app\src\main\AndroidManifest.xml:15:9-21:20
	android:name
		ADDED from C:\Users\sando\Documents\Doabox\app\src\main\AndroidManifest.xml:15:19-52
intent-filter#action:name:android.intent.action.MAIN+category:name:android.intent.category.LAUNCHER
ADDED from C:\Users\sando\Documents\Doabox\app\src\main\AndroidManifest.xml:16:13-20:29
action#android.intent.action.MAIN
ADDED from C:\Users\sando\Documents\Doabox\app\src\main\AndroidManifest.xml:17:17-69
	android:name
		ADDED from C:\Users\sando\Documents\Doabox\app\src\main\AndroidManifest.xml:17:25-66
category#android.intent.category.LAUNCHER
ADDED from C:\Users\sando\Documents\Doabox\app\src\main\AndroidManifest.xml:19:17-77
	android:name
		ADDED from C:\Users\sando\Documents\Doabox\app\src\main\AndroidManifest.xml:19:27-74
activity#com.example.sandoelio.doabox.view.Editar
ADDED from C:\Users\sando\Documents\Doabox\app\src\main\AndroidManifest.xml:22:9-49
	android:name
		ADDED from C:\Users\sando\Documents\Doabox\app\src\main\AndroidManifest.xml:22:19-46
activity#com.example.sandoelio.doabox.view.ListaInstituicao
ADDED from C:\Users\sando\Documents\Doabox\app\src\main\AndroidManifest.xml:23:9-59
	android:name
		ADDED from C:\Users\sando\Documents\Doabox\app\src\main\AndroidManifest.xml:23:19-56
activity#com.example.sandoelio.doabox.view.ListaInstituicaoEditar
ADDED from C:\Users\sando\Documents\Doabox\app\src\main\AndroidManifest.xml:24:9-65
	android:name
		ADDED from C:\Users\sando\Documents\Doabox\app\src\main\AndroidManifest.xml:24:19-62
activity#com.example.sandoelio.doabox.view.CadastraInstituicao
ADDED from C:\Users\sando\Documents\Doabox\app\src\main\AndroidManifest.xml:25:9-62
	android:name
		ADDED from C:\Users\sando\Documents\Doabox\app\src\main\AndroidManifest.xml:25:19-59
activity#com.example.sandoelio.doabox.view.Login
ADDED from C:\Users\sando\Documents\Doabox\app\src\main\AndroidManifest.xml:26:9-48
	android:name
		ADDED from C:\Users\sando\Documents\Doabox\app\src\main\AndroidManifest.xml:26:19-45
activity#com.example.sandoelio.doabox.view.Detalhes
ADDED from C:\Users\sando\Documents\Doabox\app\src\main\AndroidManifest.xml:27:9-51
	android:name
		ADDED from C:\Users\sando\Documents\Doabox\app\src\main\AndroidManifest.xml:27:19-48
uses-sdk
INJECTED from C:\Users\sando\Documents\Doabox\app\src\main\AndroidManifest.xml reason: use-sdk injection requested
INJECTED from C:\Users\sando\Documents\Doabox\app\src\main\AndroidManifest.xml
INJECTED from C:\Users\sando\Documents\Doabox\app\src\main\AndroidManifest.xml
MERGED from [com.android.support:appcompat-v7:28.0.0-rc02] C:\Users\sando\.gradle\caches\transforms-1\files-1.1\appcompat-v7-28.0.0-rc02.aar\10d88bb964da4bbdb7b047812e1e85f3\AndroidManifest.xml:20:5-44
MERGED from [com.android.support:appcompat-v7:28.0.0-rc02] C:\Users\sando\.gradle\caches\transforms-1\files-1.1\appcompat-v7-28.0.0-rc02.aar\10d88bb964da4bbdb7b047812e1e85f3\AndroidManifest.xml:20:5-44
MERGED from [com.android.support:support-fragment:28.0.0-rc02] C:\Users\sando\.gradle\caches\transforms-1\files-1.1\support-fragment-28.0.0-rc02.aar\30a6cd1f1e2b9c296587aaabcd00bebc\AndroidManifest.xml:20:5-44
MERGED from [com.android.support:support-fragment:28.0.0-rc02] C:\Users\sando\.gradle\caches\transforms-1\files-1.1\support-fragment-28.0.0-rc02.aar\30a6cd1f1e2b9c296587aaabcd00bebc\AndroidManifest.xml:20:5-44
MERGED from [com.android.support:animated-vector-drawable:28.0.0-rc02] C:\Users\sando\.gradle\caches\transforms-1\files-1.1\animated-vector-drawable-28.0.0-rc02.aar\9e752d767e08e0689393813063bcc826\AndroidManifest.xml:20:5-44
MERGED from [com.android.support:animated-vector-drawable:28.0.0-rc02] C:\Users\sando\.gradle\caches\transforms-1\files-1.1\animated-vector-drawable-28.0.0-rc02.aar\9e752d767e08e0689393813063bcc826\AndroidManifest.xml:20:5-44
MERGED from [com.android.support:support-core-ui:28.0.0-rc02] C:\Users\sando\.gradle\caches\transforms-1\files-1.1\support-core-ui-28.0.0-rc02.aar\4fa977d33fb6b0b437fd5349144ed663\AndroidManifest.xml:20:5-44
MERGED from [com.android.support:support-core-ui:28.0.0-rc02] C:\Users\sando\.gradle\caches\transforms-1\files-1.1\support-core-ui-28.0.0-rc02.aar\4fa977d33fb6b0b437fd5349144ed663\AndroidManifest.xml:20:5-44
MERGED from [com.android.support:support-core-utils:28.0.0-rc02] C:\Users\sando\.gradle\caches\transforms-1\files-1.1\support-core-utils-28.0.0-rc02.aar\a436a18c26676fe163cdb2f0d47e6b25\AndroidManifest.xml:20:5-44
MERGED from [com.android.support:support-core-utils:28.0.0-rc02] C:\Users\sando\.gradle\caches\transforms-1\files-1.1\support-core-utils-28.0.0-rc02.aar\a436a18c26676fe163cdb2f0d47e6b25\AndroidManifest.xml:20:5-44
MERGED from [com.android.support:support-vector-drawable:28.0.0-rc02] C:\Users\sando\.gradle\caches\transforms-1\files-1.1\support-vector-drawable-28.0.0-rc02.aar\d14cea26ebea4857b621382b880c457b\AndroidManifest.xml:20:5-44
MERGED from [com.android.support:support-vector-drawable:28.0.0-rc02] C:\Users\sando\.gradle\caches\transforms-1\files-1.1\support-vector-drawable-28.0.0-rc02.aar\d14cea26ebea4857b621382b880c457b\AndroidManifest.xml:20:5-44
MERGED from [com.android.support:loader:28.0.0-rc02] C:\Users\sando\.gradle\caches\transforms-1\files-1.1\loader-28.0.0-rc02.aar\9b40bb7305f5b7950852a5ffa5c86314\AndroidManifest.xml:20:5-44
MERGED from [com.android.support:loader:28.0.0-rc02] C:\Users\sando\.gradle\caches\transforms-1\files-1.1\loader-28.0.0-rc02.aar\9b40bb7305f5b7950852a5ffa5c86314\AndroidManifest.xml:20:5-44
MERGED from [com.android.support:viewpager:28.0.0-rc02] C:\Users\sando\.gradle\caches\transforms-1\files-1.1\viewpager-28.0.0-rc02.aar\a151155cced98fc6279df4ffb38a1a93\AndroidManifest.xml:20:5-44
MERGED from [com.android.support:viewpager:28.0.0-rc02] C:\Users\sando\.gradle\caches\transforms-1\files-1.1\viewpager-28.0.0-rc02.aar\a151155cced98fc6279df4ffb38a1a93\AndroidManifest.xml:20:5-44
MERGED from [com.android.support:coordinatorlayout:28.0.0-rc02] C:\Users\sando\.gradle\caches\transforms-1\files-1.1\coordinatorlayout-28.0.0-rc02.aar\07b1102b29342d200f486b059c7cb5cf\AndroidManifest.xml:20:5-44
MERGED from [com.android.support:coordinatorlayout:28.0.0-rc02] C:\Users\sando\.gradle\caches\transforms-1\files-1.1\coordinatorlayout-28.0.0-rc02.aar\07b1102b29342d200f486b059c7cb5cf\AndroidManifest.xml:20:5-44
MERGED from [com.android.support:drawerlayout:28.0.0-rc02] C:\Users\sando\.gradle\caches\transforms-1\files-1.1\drawerlayout-28.0.0-rc02.aar\85a175628bd375ce6a8ea0136367e04a\AndroidManifest.xml:20:5-44
MERGED from [com.android.support:drawerlayout:28.0.0-rc02] C:\Users\sando\.gradle\caches\transforms-1\files-1.1\drawerlayout-28.0.0-rc02.aar\85a175628bd375ce6a8ea0136367e04a\AndroidManifest.xml:20:5-44
MERGED from [com.android.support:slidingpanelayout:28.0.0-rc02] C:\Users\sando\.gradle\caches\transforms-1\files-1.1\slidingpanelayout-28.0.0-rc02.aar\aa2bef0a4096008e7b9b13457dcd3025\AndroidManifest.xml:20:5-44
MERGED from [com.android.support:slidingpanelayout:28.0.0-rc02] C:\Users\sando\.gradle\caches\transforms-1\files-1.1\slidingpanelayout-28.0.0-rc02.aar\aa2bef0a4096008e7b9b13457dcd3025\AndroidManifest.xml:20:5-44
MERGED from [com.android.support:customview:28.0.0-rc02] C:\Users\sando\.gradle\caches\transforms-1\files-1.1\customview-28.0.0-rc02.aar\d63615aa2ca6b2c8e5c68367bcbaada9\AndroidManifest.xml:20:5-44
MERGED from [com.android.support:customview:28.0.0-rc02] C:\Users\sando\.gradle\caches\transforms-1\files-1.1\customview-28.0.0-rc02.aar\d63615aa2ca6b2c8e5c68367bcbaada9\AndroidManifest.xml:20:5-44
MERGED from [com.android.support:swiperefreshlayout:28.0.0-rc02] C:\Users\sando\.gradle\caches\transforms-1\files-1.1\swiperefreshlayout-28.0.0-rc02.aar\7b07c4cb7e1e2622f426d552ba0b73cc\AndroidManifest.xml:20:5-44
MERGED from [com.android.support:swiperefreshlayout:28.0.0-rc02] C:\Users\sando\.gradle\caches\transforms-1\files-1.1\swiperefreshlayout-28.0.0-rc02.aar\7b07c4cb7e1e2622f426d552ba0b73cc\AndroidManifest.xml:20:5-44
MERGED from [com.android.support:asynclayoutinflater:28.0.0-rc02] C:\Users\sando\.gradle\caches\transforms-1\files-1.1\asynclayoutinflater-28.0.0-rc02.aar\04069ed6662398b531b9589620489fa7\AndroidManifest.xml:20:5-44
MERGED from [com.android.support:asynclayoutinflater:28.0.0-rc02] C:\Users\sando\.gradle\caches\transforms-1\files-1.1\asynclayoutinflater-28.0.0-rc02.aar\04069ed6662398b531b9589620489fa7\AndroidManifest.xml:20:5-44
MERGED from [com.android.support:support-compat:28.0.0-rc02] C:\Users\sando\.gradle\caches\transforms-1\files-1.1\support-compat-28.0.0-rc02.aar\ca93561951633df9bce8204401574d0e\AndroidManifest.xml:20:5-44
MERGED from [com.android.support:support-compat:28.0.0-rc02] C:\Users\sando\.gradle\caches\transforms-1\files-1.1\support-compat-28.0.0-rc02.aar\ca93561951633df9bce8204401574d0e\AndroidManifest.xml:20:5-44
MERGED from [com.android.support:versionedparcelable:28.0.0-rc02] C:\Users\sando\.gradle\caches\transforms-1\files-1.1\versionedparcelable-28.0.0-rc02.aar\cf7863fd72863b2ccd83afa344bdb04e\AndroidManifest.xml:20:5-44
MERGED from [com.android.support:versionedparcelable:28.0.0-rc02] C:\Users\sando\.gradle\caches\transforms-1\files-1.1\versionedparcelable-28.0.0-rc02.aar\cf7863fd72863b2ccd83afa344bdb04e\AndroidManifest.xml:20:5-44
MERGED from [com.android.support:cursoradapter:28.0.0-rc02] C:\Users\sando\.gradle\caches\transforms-1\files-1.1\cursoradapter-28.0.0-rc02.aar\45ac6648753b61d4f559e22435b28988\AndroidManifest.xml:20:5-44
MERGED from [com.android.support:cursoradapter:28.0.0-rc02] C:\Users\sando\.gradle\caches\transforms-1\files-1.1\cursoradapter-28.0.0-rc02.aar\45ac6648753b61d4f559e22435b28988\AndroidManifest.xml:20:5-44
MERGED from [android.arch.lifecycle:runtime:1.1.1] C:\Users\sando\.gradle\caches\transforms-1\files-1.1\runtime-1.1.1.aar\7492823640c92bcf20f6e2f7838091e3\AndroidManifest.xml:20:5-44
MERGED from [android.arch.lifecycle:runtime:1.1.1] C:\Users\sando\.gradle\caches\transforms-1\files-1.1\runtime-1.1.1.aar\7492823640c92bcf20f6e2f7838091e3\AndroidManifest.xml:20:5-44
MERGED from [com.android.support:documentfile:28.0.0-rc02] C:\Users\sando\.gradle\caches\transforms-1\files-1.1\documentfile-28.0.0-rc02.aar\223e4d490302a1e861314922334f0977\AndroidManifest.xml:20:5-44
MERGED from [com.android.support:documentfile:28.0.0-rc02] C:\Users\sando\.gradle\caches\transforms-1\files-1.1\documentfile-28.0.0-rc02.aar\223e4d490302a1e861314922334f0977\AndroidManifest.xml:20:5-44
MERGED from [com.android.support:localbroadcastmanager:28.0.0-rc02] C:\Users\sando\.gradle\caches\transforms-1\files-1.1\localbroadcastmanager-28.0.0-rc02.aar\137d8191e3ca43c31d07e6d49fdc4a43\AndroidManifest.xml:20:5-44
MERGED from [com.android.support:localbroadcastmanager:28.0.0-rc02] C:\Users\sando\.gradle\caches\transforms-1\files-1.1\localbroadcastmanager-28.0.0-rc02.aar\137d8191e3ca43c31d07e6d49fdc4a43\AndroidManifest.xml:20:5-44
MERGED from [com.android.support:print:28.0.0-rc02] C:\Users\sando\.gradle\caches\transforms-1\files-1.1\print-28.0.0-rc02.aar\e385dbb23f1ccd0a9b7da5b7ec65e813\AndroidManifest.xml:20:5-44
MERGED from [com.android.support:print:28.0.0-rc02] C:\Users\sando\.gradle\caches\transforms-1\files-1.1\print-28.0.0-rc02.aar\e385dbb23f1ccd0a9b7da5b7ec65e813\AndroidManifest.xml:20:5-44
MERGED from [android.arch.lifecycle:viewmodel:1.1.1] C:\Users\sando\.gradle\caches\transforms-1\files-1.1\viewmodel-1.1.1.aar\6fda5bc17ae23a4e10d7a9f3720016d3\AndroidManifest.xml:20:5-44
MERGED from [android.arch.lifecycle:viewmodel:1.1.1] C:\Users\sando\.gradle\caches\transforms-1\files-1.1\viewmodel-1.1.1.aar\6fda5bc17ae23a4e10d7a9f3720016d3\AndroidManifest.xml:20:5-44
MERGED from [android.arch.lifecycle:livedata-core:1.1.1] C:\Users\sando\.gradle\caches\transforms-1\files-1.1\livedata-core-1.1.1.aar\c876238d39649c83f21ea29195486d1c\AndroidManifest.xml:20:5-44
MERGED from [android.arch.lifecycle:livedata-core:1.1.1] C:\Users\sando\.gradle\caches\transforms-1\files-1.1\livedata-core-1.1.1.aar\c876238d39649c83f21ea29195486d1c\AndroidManifest.xml:20:5-44
MERGED from [android.arch.core:runtime:1.1.1] C:\Users\sando\.gradle\caches\transforms-1\files-1.1\runtime-1.1.1.aar\d1a59240cc7a94740586b0dd8c13737d\AndroidManifest.xml:20:5-44
MERGED from [android.arch.core:runtime:1.1.1] C:\Users\sando\.gradle\caches\transforms-1\files-1.1\runtime-1.1.1.aar\d1a59240cc7a94740586b0dd8c13737d\AndroidManifest.xml:20:5-44
MERGED from [com.android.support:interpolator:28.0.0-rc02] C:\Users\sando\.gradle\caches\transforms-1\files-1.1\interpolator-28.0.0-rc02.aar\f92c7a01c257bd9af814c043a1383878\AndroidManifest.xml:20:5-44
MERGED from [com.android.support:interpolator:28.0.0-rc02] C:\Users\sando\.gradle\caches\transforms-1\files-1.1\interpolator-28.0.0-rc02.aar\f92c7a01c257bd9af814c043a1383878\AndroidManifest.xml:20:5-44
INJECTED from C:\Users\sando\Documents\Doabox\app\src\main\AndroidManifest.xml
INJECTED from C:\Users\sando\Documents\Doabox\app\src\main\AndroidManifest.xml
	android:targetSdkVersion
		INJECTED from C:\Users\sando\Documents\Doabox\app\src\main\AndroidManifest.xml
		ADDED from C:\Users\sando\Documents\Doabox\app\src\main\AndroidManifest.xml
		INJECTED from C:\Users\sando\Documents\Doabox\app\src\main\AndroidManifest.xml
	android:minSdkVersion
		INJECTED from C:\Users\sando\Documents\Doabox\app\src\main\AndroidManifest.xml
		ADDED from C:\Users\sando\Documents\Doabox\app\src\main\AndroidManifest.xml
		INJECTED from C:\Users\sando\Documents\Doabox\app\src\main\AndroidManifest.xml
